Untitled
…
most_recent_data

# A tibble: 50 × 7
# Groups:   PatientID [50]
   PatientID ICULOS    HR  Temp  Resp SepsisLabel obsTime            
   <chr>      <dbl> <dbl> <dbl> <dbl>       <dbl> <dttm>             
 1 000131         0    81  36.9    15           0 2023-04-09 03:45:40
 2 000410         0   100  35.4    12           0 2023-04-09 03:45:40
 3 000543         0    72  35.5    14           0 2023-04-09 03:45:40
 4 000545         0    60  36.9    20           1 2023-04-09 03:45:40
 5 000855         0    70  36.1    10           0 2023-04-09 03:45:40
 6 000967         0    82  NA      19           0 2023-04-09 03:45:40
 7 001046         0    89  35.5    16           0 2023-04-09 03:45:40
 8 001160         0    76  NA      23           0 2023-04-09 03:45:40
 9 001573         0   115  38.7    25           0 2023-04-09 03:45:40
10 002278         0    NA  NA      NA           0 2023-04-09 03:45:40
# … with 40 more rows
